com/vdopia/rpc/protocol/RPCDecoder.class
com/vdopia/rpc/protocol/Constants$RPCType.class
com/vdopia/rpc/server/RPCServer$1.class
com/vdopia/rpc/server/RPCServer.class
com/vdopia/rpc/factual/FactualRPCServer.class
com/vdopia/rpc/factual/GeoPoint.class
com/vdopia/rpc/server/DefaultExceptionHandler.class
com/vdopia/rpc/server/Service.class
com/vdopia/rpc/protocol/Request.class
com/vdopia/rpc/protocol/RPCContext.class
com/vdopia/rpc/server/BadRequestException.class
com/vdopia/rpc/protocol/KryoSerializer$1.class
com/vdopia/rpc/factual/MatchResult.class
com/vdopia/rpc/protocol/Response.class
com/vdopia/rpc/protocol/Constants$MessageType.class
com/vdopia/rpc/protocol/RPCEncoder.class
com/vdopia/rpc/protocol/KryoSerializer.class
com/vdopia/rpc/factual/Targetable.class
com/vdopia/rpc/protocol/Constants$RPCSerializer.class
com/vdopia/rpc/protocol/Constants$RPCStatus.class
com/vdopia/rpc/factual/FactualSegmentProvider.class
com/vdopia/rpc/protocol/KryoSerializer$1$1.class
com/vdopia/rpc/server/DefaultHandler.class
com/vdopia/rpc/factual/DefaultMatchResult.class
com/vdopia/rpc/server/DefaultServerInitializer.class
com/vdopia/rpc/protocol/Constants.class
com/vdopia/rpc/factual/ProviderConstants.class
com/vdopia/rpc/util/Configuration.class
com/vdopia/rpc/factual/SegmentProvider.class
